jal 2.4o (compiled May  8 2011)
generating p-code
772 tokens, 93518 chars; 2115 lines; 6 files
generating PIC code pass 1
generating PIC code pass 2
writing result
Code area: 108 of 2048 used (words)
Data area: 11 of 112 used
Software stack available: 69 bytes
Hardware stack depth 2 of 16
0 errors, 0 warnings


